Removed Pin From Net: NetName=GND Pin=C6_B1-1
Removed Pin From Net: NetName=24V Pin=C6_B1-2
Removed Pin From Net: NetName=GND Pin=C6_B2-1
Removed Pin From Net: NetName=24V Pin=C6_B2-2
Removed Pin From Net: NetName=GND Pin=C6_B3-1
Removed Pin From Net: NetName=24V Pin=C6_B3-2
Removed Pin From Net: NetName=GND Pin=C6_B4-1
Removed Pin From Net: NetName=24V Pin=C6_B4-2
Removed Pin From Net: NetName=GND Pin=C6_B5-1
Removed Pin From Net: NetName=24V Pin=C6_B5-2
Removed Pin From Net: NetName=GND Pin=C6_B6-1
Removed Pin From Net: NetName=24V Pin=C6_B6-2
Removed Pin From Net: NetName=GND Pin=C6_D1-1
Removed Pin From Net: NetName=24V Pin=C6_D1-2
Removed Pin From Net: NetName=GND Pin=C6_D2-1
Removed Pin From Net: NetName=24V Pin=C6_D2-2
Removed Pin From Net: NetName=GND Pin=C6_D3-1
Removed Pin From Net: NetName=24V Pin=C6_D3-2
Removed Pin From Net: NetName=GND Pin=C6_D4-1
Removed Pin From Net: NetName=24V Pin=C6_D4-2
Removed Pin From Net: NetName=GND Pin=C6_D5-1
Removed Pin From Net: NetName=24V Pin=C6_D5-2
Removed Pin From Net: NetName=GND Pin=C6_D6-1
Removed Pin From Net: NetName=24V Pin=C6_D6-2
Removed Pin From Net: NetName=GND Pin=C6_D7-1
Removed Pin From Net: NetName=24V Pin=C6_D7-2
Removed Pin From Net: NetName=GND Pin=C6_D8-1
Removed Pin From Net: NetName=24V Pin=C6_D8-2
Removed Pin From Net: NetName=GND Pin=C6_E1-1
Removed Pin From Net: NetName=24V Pin=C6_E1-2
Removed Pin From Net: NetName=GND Pin=C6_E2-1
Removed Pin From Net: NetName=24V Pin=C6_E2-2
Removed Pin From Net: NetName=GND Pin=C6_E3-1
Removed Pin From Net: NetName=24V Pin=C6_E3-2
Removed Pin From Net: NetName=GND Pin=C6_E4-1
Removed Pin From Net: NetName=24V Pin=C6_E4-2
Removed Pin From Net: NetName=GND Pin=C6_E5-1
Removed Pin From Net: NetName=24V Pin=C6_E5-2
Removed Pin From Net: NetName=GND Pin=C6_F1-1
Removed Pin From Net: NetName=24V Pin=C6_F1-2
Removed Pin From Net: NetName=GND Pin=C6_F2-1
Removed Pin From Net: NetName=24V Pin=C6_F2-2
Removed Pin From Net: NetName=GND Pin=C6_F3-1
Removed Pin From Net: NetName=24V Pin=C6_F3-2
Removed Pin From Net: NetName=GND Pin=C6_F4-1
Removed Pin From Net: NetName=24V Pin=C6_F4-2
Removed Pin From Net: NetName=GND Pin=C6_F5-1
Removed Pin From Net: NetName=24V Pin=C6_F5-2
Removed Pin From Net: NetName=GND Pin=C6_F6-1
Removed Pin From Net: NetName=24V Pin=C6_F6-2
Removed Pin From Net: NetName=GND Pin=C6_F7-1
Removed Pin From Net: NetName=24V Pin=C6_F7-2
Removed Pin From Net: NetName=GND Pin=C6_F8-1
Removed Pin From Net: NetName=24V Pin=C6_F8-2
Removed Pin From Net: NetName=GND Pin=C6_G1-1
Removed Pin From Net: NetName=24V Pin=C6_G1-2
Removed Pin From Net: NetName=GND Pin=C6_G2-1
Removed Pin From Net: NetName=24V Pin=C6_G2-2
Removed Pin From Net: NetName=GND Pin=C6_G3-1
Removed Pin From Net: NetName=24V Pin=C6_G3-2
Removed Pin From Net: NetName=GND Pin=C6_G4-1
Removed Pin From Net: NetName=24V Pin=C6_G4-2
Removed Pin From Net: NetName=GND Pin=C6_G5-1
Removed Pin From Net: NetName=24V Pin=C6_G5-2
Removed Pin From Net: NetName=GND Pin=C6_G6-1
Removed Pin From Net: NetName=24V Pin=C6_G6-2
Removed Pin From Net: NetName=GND Pin=C6_G7-1
Removed Pin From Net: NetName=24V Pin=C6_G7-2
Removed Pin From Net: NetName=GND Pin=C6_G8-1
Removed Pin From Net: NetName=24V Pin=C6_G8-2
Removed Pin From Net: NetName=GND Pin=C6_H1-1
Removed Pin From Net: NetName=24V Pin=C6_H1-2
Removed Pin From Net: NetName=GND Pin=C6_H2-1
Removed Pin From Net: NetName=24V Pin=C6_H2-2
Removed Pin From Net: NetName=GND Pin=C6_H3-1
Removed Pin From Net: NetName=24V Pin=C6_H3-2
Removed Pin From Net: NetName=GND Pin=C6_H4-1
Removed Pin From Net: NetName=24V Pin=C6_H4-2
Removed Pin From Net: NetName=GND Pin=C6_H5-1
Removed Pin From Net: NetName=24V Pin=C6_H5-2
Removed Pin From Net: NetName=GND Pin=C6_H6-1
Removed Pin From Net: NetName=24V Pin=C6_H6-2
Removed Pin From Net: NetName=GND Pin=C6_H7-1
Removed Pin From Net: NetName=24V Pin=C6_H7-2
Removed Pin From Net: NetName=GND Pin=C6_I1-1
Removed Pin From Net: NetName=24V Pin=C6_I1-2
Removed Pin From Net: NetName=GND Pin=C6_I2-1
Removed Pin From Net: NetName=24V Pin=C6_I2-2
Removed Pin From Net: NetName=GND Pin=C6_I3-1
Removed Pin From Net: NetName=24V Pin=C6_I3-2
Removed Pin From Net: NetName=GND Pin=C6_I4-1
Removed Pin From Net: NetName=24V Pin=C6_I4-2
Removed Pin From Net: NetName=GND Pin=C6_I5-1
Removed Pin From Net: NetName=24V Pin=C6_I5-2
Removed Pin From Net: NetName=NetC7_B1_1 Pin=C7_B1-1
Removed Pin From Net: NetName=MAKIETA_B1 Pin=C7_B1-2
Removed Pin From Net: NetName=NetC7_B2_1 Pin=C7_B2-1
Removed Pin From Net: NetName=MAKIETA_B2 Pin=C7_B2-2
Removed Pin From Net: NetName=NetC7_B3_1 Pin=C7_B3-1
Removed Pin From Net: NetName=MAKIETA_B3 Pin=C7_B3-2
Removed Pin From Net: NetName=NetC7_B4_1 Pin=C7_B4-1
Removed Pin From Net: NetName=MAKIETA_B4 Pin=C7_B4-2
Removed Pin From Net: NetName=NetC7_B5_1 Pin=C7_B5-1
Removed Pin From Net: NetName=MAKIETA_B5 Pin=C7_B5-2
Removed Pin From Net: NetName=NetC7_B6_1 Pin=C7_B6-1
Removed Pin From Net: NetName=MAKIETA_B6 Pin=C7_B6-2
Removed Pin From Net: NetName=NetC7_D1_1 Pin=C7_D1-1
Removed Pin From Net: NetName=MAKIETA_D1 Pin=C7_D1-2
Removed Pin From Net: NetName=NetC7_D2_1 Pin=C7_D2-1
Removed Pin From Net: NetName=MAKIETA_D2 Pin=C7_D2-2
Removed Pin From Net: NetName=NetC7_D3_1 Pin=C7_D3-1
Removed Pin From Net: NetName=MAKIETA_D3 Pin=C7_D3-2
Removed Pin From Net: NetName=NetC7_D4_1 Pin=C7_D4-1
Removed Pin From Net: NetName=MAKIETA_D4 Pin=C7_D4-2
Removed Pin From Net: NetName=NetC7_D5_1 Pin=C7_D5-1
Removed Pin From Net: NetName=MAKIETA_D5 Pin=C7_D5-2
Removed Pin From Net: NetName=NetC7_D6_1 Pin=C7_D6-1
Removed Pin From Net: NetName=MAKIETA_D6 Pin=C7_D6-2
Removed Pin From Net: NetName=NetC7_D7_1 Pin=C7_D7-1
Removed Pin From Net: NetName=MAKIETA_D7 Pin=C7_D7-2
Removed Pin From Net: NetName=NetC7_D8_1 Pin=C7_D8-1
Removed Pin From Net: NetName=MAKIETA_D8 Pin=C7_D8-2
Removed Pin From Net: NetName=NetC7_E1_1 Pin=C7_E1-1
Removed Pin From Net: NetName=MAKIETA_E1 Pin=C7_E1-2
Removed Pin From Net: NetName=NetC7_E2_1 Pin=C7_E2-1
Removed Pin From Net: NetName=MAKIETA_E2 Pin=C7_E2-2
Removed Pin From Net: NetName=NetC7_E3_1 Pin=C7_E3-1
Removed Pin From Net: NetName=MAKIETA_E3 Pin=C7_E3-2
Removed Pin From Net: NetName=NetC7_E4_1 Pin=C7_E4-1
Removed Pin From Net: NetName=MAKIETA_E4 Pin=C7_E4-2
Removed Pin From Net: NetName=NetC7_E5_1 Pin=C7_E5-1
Removed Pin From Net: NetName=MAKIETA_E5 Pin=C7_E5-2
Removed Pin From Net: NetName=NetC7_F1_1 Pin=C7_F1-1
Removed Pin From Net: NetName=MAKIETA_F1 Pin=C7_F1-2
Removed Pin From Net: NetName=NetC7_F2_1 Pin=C7_F2-1
Removed Pin From Net: NetName=MAKIETA_F2 Pin=C7_F2-2
Removed Pin From Net: NetName=NetC7_F3_1 Pin=C7_F3-1
Removed Pin From Net: NetName=MAKIETA_F3 Pin=C7_F3-2
Removed Pin From Net: NetName=NetC7_F4_1 Pin=C7_F4-1
Removed Pin From Net: NetName=MAKIETA_F4 Pin=C7_F4-2
Removed Pin From Net: NetName=NetC7_F5_1 Pin=C7_F5-1
Removed Pin From Net: NetName=MAKIETA_F5 Pin=C7_F5-2
Removed Pin From Net: NetName=NetC7_F6_1 Pin=C7_F6-1
Removed Pin From Net: NetName=MAKIETA_F6 Pin=C7_F6-2
Removed Pin From Net: NetName=NetC7_F7_1 Pin=C7_F7-1
Removed Pin From Net: NetName=MAKIETA_F7 Pin=C7_F7-2
Removed Pin From Net: NetName=NetC7_F8_1 Pin=C7_F8-1
Removed Pin From Net: NetName=MAKIETA_F8 Pin=C7_F8-2
Removed Pin From Net: NetName=NetC7_G1_1 Pin=C7_G1-1
Removed Pin From Net: NetName=MAKIETA_G1 Pin=C7_G1-2
Removed Pin From Net: NetName=NetC7_G2_1 Pin=C7_G2-1
Removed Pin From Net: NetName=MAKIETA_G2 Pin=C7_G2-2
Removed Pin From Net: NetName=NetC7_G3_1 Pin=C7_G3-1
Removed Pin From Net: NetName=MAKIETA_G3 Pin=C7_G3-2
Removed Pin From Net: NetName=NetC7_G4_1 Pin=C7_G4-1
Removed Pin From Net: NetName=MAKIETA_G4 Pin=C7_G4-2
Removed Pin From Net: NetName=NetC7_G5_1 Pin=C7_G5-1
Removed Pin From Net: NetName=MAKIETA_G5 Pin=C7_G5-2
Removed Pin From Net: NetName=NetC7_G6_1 Pin=C7_G6-1
Removed Pin From Net: NetName=MAKIETA_G6 Pin=C7_G6-2
Removed Pin From Net: NetName=NetC7_G7_1 Pin=C7_G7-1
Removed Pin From Net: NetName=MAKIETA_G7 Pin=C7_G7-2
Removed Pin From Net: NetName=NetC7_G8_1 Pin=C7_G8-1
Removed Pin From Net: NetName=MAKIETA_G8 Pin=C7_G8-2
Removed Pin From Net: NetName=NetC7_H1_1 Pin=C7_H1-1
Removed Pin From Net: NetName=MAKIETA_H1 Pin=C7_H1-2
Removed Pin From Net: NetName=NetC7_H2_1 Pin=C7_H2-1
Removed Pin From Net: NetName=MAKIETA_H2 Pin=C7_H2-2
Removed Pin From Net: NetName=NetC7_H3_1 Pin=C7_H3-1
Removed Pin From Net: NetName=MAKIETA_H3 Pin=C7_H3-2
Removed Pin From Net: NetName=NetC7_H4_1 Pin=C7_H4-1
Removed Pin From Net: NetName=MAKIETA_H4 Pin=C7_H4-2
Removed Pin From Net: NetName=NetC7_H5_1 Pin=C7_H5-1
Removed Pin From Net: NetName=MAKIETA_H5 Pin=C7_H5-2
Removed Pin From Net: NetName=NetC7_H6_1 Pin=C7_H6-1
Removed Pin From Net: NetName=MAKIETA_H6 Pin=C7_H6-2
Removed Pin From Net: NetName=NetC7_H7_1 Pin=C7_H7-1
Removed Pin From Net: NetName=MAKIETA_H7 Pin=C7_H7-2
Removed Pin From Net: NetName=NetC7_I1_1 Pin=C7_I1-1
Removed Pin From Net: NetName=MAKIETA_I1 Pin=C7_I1-2
Removed Pin From Net: NetName=NetC7_I2_1 Pin=C7_I2-1
Removed Pin From Net: NetName=MAKIETA_I2 Pin=C7_I2-2
Removed Pin From Net: NetName=NetC7_I3_1 Pin=C7_I3-1
Removed Pin From Net: NetName=MAKIETA_I3 Pin=C7_I3-2
Removed Pin From Net: NetName=NetC7_I4_1 Pin=C7_I4-1
Removed Pin From Net: NetName=MAKIETA_I4 Pin=C7_I4-2
Removed Pin From Net: NetName=NetC7_I5_1 Pin=C7_I5-1
Removed Pin From Net: NetName=MAKIETA_I5 Pin=C7_I5-2
Removed Member From Class: ClassName=B1 Member=C6_B1
Removed Member From Class: ClassName=B2 Member=C6_B2
Removed Member From Class: ClassName=B3 Member=C6_B3
Removed Member From Class: ClassName=B4 Member=C6_B4
Removed Member From Class: ClassName=B5 Member=C6_B5
Removed Member From Class: ClassName=B6 Member=C6_B6
Removed Member From Class: ClassName=D1 Member=C6_D1
Removed Member From Class: ClassName=D2 Member=C6_D2
Removed Member From Class: ClassName=D3 Member=C6_D3
Removed Member From Class: ClassName=D4 Member=C6_D4
Removed Member From Class: ClassName=D5 Member=C6_D5
Removed Member From Class: ClassName=D6 Member=C6_D6
Removed Member From Class: ClassName=D7 Member=C6_D7
Removed Member From Class: ClassName=D8 Member=C6_D8
Removed Member From Class: ClassName=E1 Member=C6_E1
Removed Member From Class: ClassName=E2 Member=C6_E2
Removed Member From Class: ClassName=E3 Member=C6_E3
Removed Member From Class: ClassName=E4 Member=C6_E4
Removed Member From Class: ClassName=E5 Member=C6_E5
Removed Member From Class: ClassName=F1 Member=C6_F1
Removed Member From Class: ClassName=F2 Member=C6_F2
Removed Member From Class: ClassName=F3 Member=C6_F3
Removed Member From Class: ClassName=F4 Member=C6_F4
Removed Member From Class: ClassName=F5 Member=C6_F5
Removed Member From Class: ClassName=F6 Member=C6_F6
Removed Member From Class: ClassName=F7 Member=C6_F7
Removed Member From Class: ClassName=F8 Member=C6_F8
Removed Member From Class: ClassName=G1 Member=C6_G1
Removed Member From Class: ClassName=G2 Member=C6_G2
Removed Member From Class: ClassName=G3 Member=C6_G3
Removed Member From Class: ClassName=G4 Member=C6_G4
Removed Member From Class: ClassName=G5 Member=C6_G5
Removed Member From Class: ClassName=G6 Member=C6_G6
Removed Member From Class: ClassName=G7 Member=C6_G7
Removed Member From Class: ClassName=G8 Member=C6_G8
Removed Member From Class: ClassName=H1 Member=C6_H1
Removed Member From Class: ClassName=H2 Member=C6_H2
Removed Member From Class: ClassName=H3 Member=C6_H3
Removed Member From Class: ClassName=H4 Member=C6_H4
Removed Member From Class: ClassName=H5 Member=C6_H5
Removed Member From Class: ClassName=H6 Member=C6_H6
Removed Member From Class: ClassName=H7 Member=C6_H7
Removed Member From Class: ClassName=I1 Member=C6_I1
Removed Member From Class: ClassName=I2 Member=C6_I2
Removed Member From Class: ClassName=I3 Member=C6_I3
Removed Member From Class: ClassName=I4 Member=C6_I4
Removed Member From Class: ClassName=I5 Member=C6_I5
Removed Member From Class: ClassName=B1 Member=C7_B1
Removed Member From Class: ClassName=B2 Member=C7_B2
Removed Member From Class: ClassName=B3 Member=C7_B3
Removed Member From Class: ClassName=B4 Member=C7_B4
Removed Member From Class: ClassName=B5 Member=C7_B5
Removed Member From Class: ClassName=B6 Member=C7_B6
Removed Member From Class: ClassName=D1 Member=C7_D1
Removed Member From Class: ClassName=D2 Member=C7_D2
Removed Member From Class: ClassName=D3 Member=C7_D3
Removed Member From Class: ClassName=D4 Member=C7_D4
Removed Member From Class: ClassName=D5 Member=C7_D5
Removed Member From Class: ClassName=D6 Member=C7_D6
Removed Member From Class: ClassName=D7 Member=C7_D7
Removed Member From Class: ClassName=D8 Member=C7_D8
Removed Member From Class: ClassName=E1 Member=C7_E1
Removed Member From Class: ClassName=E2 Member=C7_E2
Removed Member From Class: ClassName=E3 Member=C7_E3
Removed Member From Class: ClassName=E4 Member=C7_E4
Removed Member From Class: ClassName=E5 Member=C7_E5
Removed Member From Class: ClassName=F1 Member=C7_F1
Removed Member From Class: ClassName=F2 Member=C7_F2
Removed Member From Class: ClassName=F3 Member=C7_F3
Removed Member From Class: ClassName=F4 Member=C7_F4
Removed Member From Class: ClassName=F5 Member=C7_F5
Removed Member From Class: ClassName=F6 Member=C7_F6
Removed Member From Class: ClassName=F7 Member=C7_F7
Removed Member From Class: ClassName=F8 Member=C7_F8
Removed Member From Class: ClassName=G1 Member=C7_G1
Removed Member From Class: ClassName=G2 Member=C7_G2
Removed Member From Class: ClassName=G3 Member=C7_G3
Removed Member From Class: ClassName=G4 Member=C7_G4
Removed Member From Class: ClassName=G5 Member=C7_G5
Removed Member From Class: ClassName=G6 Member=C7_G6
Removed Member From Class: ClassName=G7 Member=C7_G7
Removed Member From Class: ClassName=G8 Member=C7_G8
Removed Member From Class: ClassName=H1 Member=C7_H1
Removed Member From Class: ClassName=H2 Member=C7_H2
Removed Member From Class: ClassName=H3 Member=C7_H3
Removed Member From Class: ClassName=H4 Member=C7_H4
Removed Member From Class: ClassName=H5 Member=C7_H5
Removed Member From Class: ClassName=H6 Member=C7_H6
Removed Member From Class: ClassName=H7 Member=C7_H7
Removed Member From Class: ClassName=I1 Member=C7_I1
Removed Member From Class: ClassName=I2 Member=C7_I2
Removed Member From Class: ClassName=I3 Member=C7_I3
Removed Member From Class: ClassName=I4 Member=C7_I4
Removed Member From Class: ClassName=I5 Member=C7_I5
Change Component Designator: OldDesignator=C8 NewDesignator=C6
Change Component Designator: OldDesignator=C9 NewDesignator=C7
Change Component Designator: OldDesignator=C10 NewDesignator=C8
Change Component Designator: OldDesignator=C11 NewDesignator=C9
Change Component Designator: OldDesignator=C12 NewDesignator=C10
Change Component Designator: OldDesignator=C13 NewDesignator=C11
Change Component Designator: OldDesignator=C14 NewDesignator=C12
Change Component Designator: OldDesignator=C15 NewDesignator=C13
Change Component Designator: OldDesignator=C16 NewDesignator=C14
Change Component Designator: OldDesignator=C17 NewDesignator=C15
Change Component Designator: OldDesignator=C18 NewDesignator=C16
Change Component Designator: OldDesignator=C19 NewDesignator=C17
Change Component Designator: OldDesignator=C20 NewDesignator=C18
Change Component Designator: OldDesignator=C21 NewDesignator=C19
Change Component Designator: OldDesignator=C22 NewDesignator=C20
Change Component Designator: OldDesignator=C23 NewDesignator=C21
Change Component Designator: OldDesignator=C24 NewDesignator=C22
Change Component Designator: OldDesignator=C25 NewDesignator=C23
Change Component Designator: OldDesignator=C26 NewDesignator=C24
Change Component Designator: OldDesignator=C27 NewDesignator=C25
Change Component Designator: OldDesignator=C28 NewDesignator=C26
Change Component Designator: OldDesignator=C29 NewDesignator=C27
Change Component Designator: OldDesignator=C30 NewDesignator=C28
Change Component Designator: OldDesignator=C31 NewDesignator=C29
Change Component Designator: OldDesignator=C32 NewDesignator=C30
Change Component Designator: OldDesignator=C33 NewDesignator=C31
Change Component Designator: OldDesignator=C34 NewDesignator=C32
Change Component Designator: OldDesignator=C35 NewDesignator=C33
Change Component Designator: OldDesignator=C36 NewDesignator=C34
Change Component Designator: OldDesignator=C37 NewDesignator=C35
Change Component Designator: OldDesignator=C38 NewDesignator=C36
Change Net Name : Old Net Name=NetC7_B1_1 New Net Name=NetCB1_B1_1
Change Net Name : Old Net Name=NetC7_B2_1 New Net Name=NetCB1_B2_1
Change Net Name : Old Net Name=NetC7_B3_1 New Net Name=NetCB1_B3_1
Change Net Name : Old Net Name=NetC7_B4_1 New Net Name=NetCB1_B4_1
Change Net Name : Old Net Name=NetC7_B5_1 New Net Name=NetCB1_B5_1
Change Net Name : Old Net Name=NetC7_B6_1 New Net Name=NetCB1_B6_1
Change Net Name : Old Net Name=NetC7_D1_1 New Net Name=NetCB1_D1_1
Change Net Name : Old Net Name=NetC7_D2_1 New Net Name=NetCB1_D2_1
Change Net Name : Old Net Name=NetC7_D3_1 New Net Name=NetCB1_D3_1
Change Net Name : Old Net Name=NetC7_D4_1 New Net Name=NetCB1_D4_1
Change Net Name : Old Net Name=NetC7_D5_1 New Net Name=NetCB1_D5_1
Change Net Name : Old Net Name=NetC7_D6_1 New Net Name=NetCB1_D6_1
Change Net Name : Old Net Name=NetC7_D7_1 New Net Name=NetCB1_D7_1
Change Net Name : Old Net Name=NetC7_D8_1 New Net Name=NetCB1_D8_1
Change Net Name : Old Net Name=NetC7_E1_1 New Net Name=NetCB1_E1_1
Change Net Name : Old Net Name=NetC7_E2_1 New Net Name=NetCB1_E2_1
Change Net Name : Old Net Name=NetC7_E3_1 New Net Name=NetCB1_E3_1
Change Net Name : Old Net Name=NetC7_E4_1 New Net Name=NetCB1_E4_1
Change Net Name : Old Net Name=NetC7_E5_1 New Net Name=NetCB1_E5_1
Change Net Name : Old Net Name=NetC7_F1_1 New Net Name=NetCB1_F1_1
Change Net Name : Old Net Name=NetC7_F2_1 New Net Name=NetCB1_F2_1
Change Net Name : Old Net Name=NetC7_F3_1 New Net Name=NetCB1_F3_1
Change Net Name : Old Net Name=NetC7_F4_1 New Net Name=NetCB1_F4_1
Change Net Name : Old Net Name=NetC7_F5_1 New Net Name=NetCB1_F5_1
Change Net Name : Old Net Name=NetC7_F6_1 New Net Name=NetCB1_F6_1
Change Net Name : Old Net Name=NetC7_F7_1 New Net Name=NetCB1_F7_1
Change Net Name : Old Net Name=NetC7_F8_1 New Net Name=NetCB1_F8_1
Change Net Name : Old Net Name=NetC7_G1_1 New Net Name=NetCB1_G1_1
Change Net Name : Old Net Name=NetC7_G2_1 New Net Name=NetCB1_G2_1
Change Net Name : Old Net Name=NetC7_G3_1 New Net Name=NetCB1_G3_1
Change Net Name : Old Net Name=NetC7_G4_1 New Net Name=NetCB1_G4_1
Change Net Name : Old Net Name=NetC7_G5_1 New Net Name=NetCB1_G5_1
Change Net Name : Old Net Name=NetC7_G6_1 New Net Name=NetCB1_G6_1
Change Net Name : Old Net Name=NetC7_G7_1 New Net Name=NetCB1_G7_1
Change Net Name : Old Net Name=NetC7_G8_1 New Net Name=NetCB1_G8_1
Change Net Name : Old Net Name=NetC7_H1_1 New Net Name=NetCB1_H1_1
Change Net Name : Old Net Name=NetC7_H2_1 New Net Name=NetCB1_H2_1
Change Net Name : Old Net Name=NetC7_H3_1 New Net Name=NetCB1_H3_1
Change Net Name : Old Net Name=NetC7_H4_1 New Net Name=NetCB1_H4_1
Change Net Name : Old Net Name=NetC7_H5_1 New Net Name=NetCB1_H5_1
Change Net Name : Old Net Name=NetC7_H6_1 New Net Name=NetCB1_H6_1
Change Net Name : Old Net Name=NetC7_H7_1 New Net Name=NetCB1_H7_1
Change Net Name : Old Net Name=NetC7_I1_1 New Net Name=NetCB1_I1_1
Change Net Name : Old Net Name=NetC7_I2_1 New Net Name=NetCB1_I2_1
Change Net Name : Old Net Name=NetC7_I3_1 New Net Name=NetCB1_I3_1
Change Net Name : Old Net Name=NetC7_I4_1 New Net Name=NetCB1_I4_1
Change Net Name : Old Net Name=NetC7_I5_1 New Net Name=NetCB1_I5_1
Change Net Name : Old Net Name=NetC20_2 New Net Name=NetC18_2
Change Net Name : Old Net Name=NetC21_1 New Net Name=NetC19_1
Change Net Name : Old Net Name=NetC21_2 New Net Name=NetC19_2
Change Net Name : Old Net Name=NetC23_1 New Net Name=NetC21_1
Change Net Name : Old Net Name=NetC23_2 New Net Name=NetC21_2
Change Net Name : Old Net Name=NetC28_2 New Net Name=NetC26_2
Change Net Name : Old Net Name=NetC29_2 New Net Name=NetC27_2
