Change Net Name : Old Net Name=CANH New Net Name=CAN_P
Change Net Name : Old Net Name=CANL New Net Name=CAN_N
Added Differential Pair: Name=CAN
Added Member To Class: ClassName=EXP_INT_[0..1] Member=Element[1]: EXP_INT_
