Removed Pin From Net: NetName=EXP_INT_1 Pin=U2-29
Removed Pin From Net: NetName=EXP_INT_0 Pin=U2-30
Added Pin To Net: NetName=EXP_INT_0 Pin=U2-29
Added Pin To Net: NetName=EXP_INT_1 Pin=U2-30
Change Net Name : Old Net Name=EXP_INT_0 New Net Name=EXP_INT_1
Change Net Name : Old Net Name=EXP_INT_1 New Net Name=EXP_INT_0
