Version 4
SHEET 1 1284 1168
WIRE 352 0 80 0
WIRE 80 48 80 0
WIRE -96 208 -128 208
WIRE 80 208 80 128
WIRE 80 208 -16 208
WIRE 352 208 352 0
WIRE -256 256 -256 208
WIRE 80 272 80 208
WIRE -256 400 -256 336
WIRE 80 400 80 336
WIRE 80 400 -256 400
WIRE 352 400 352 288
WIRE 352 400 80 400
WIRE 80 432 80 400
FLAG 80 432 0
SYMBOL res 64 32 R0
SYMATTR InstName R1
SYMATTR Value 10k
SYMBOL res 0 192 R90
WINDOW 0 0 56 VBottom 2
WINDOW 3 32 56 VTop 2
SYMATTR InstName R2
SYMATTR Value 100
SYMBOL voltage 352 192 R0
WINDOW 123 0 0 Left 0
WINDOW 39 0 0 Left 0
SYMATTR InstName V1
SYMATTR Value 24
SYMBOL res -272 240 R0
SYMATTR InstName R3
SYMATTR Value 50k
SYMBOL zener 96 336 R180
WINDOW 0 24 64 Left 2
WINDOW 3 24 0 Left 2
SYMATTR InstName D1
SYMATTR Value 1N750
TEXT 158 436 Left 2 !.tran 30s
TEXT 520 -16 Left 0 !.SUBCKT mmsz3v3t1 2 1\n**************************************\n*      Model Generated by MODPEX     *\n*Copyright(c) Symmetry Design Systems*\n*         All Rights Reserved        *\n*    UNPUBLISHED LICENSED SOFTWARE   *\n*   Contains Proprietary Information *\n*      Which is The Property of      *\n*     SYMMETRY OR ITS LICENSORS      *\n*Commercial Use or Resale Restricted *\n*   by Symmetry License Agreement    *\n**************************************\n"* Model generated on Jul 31, 02"\n* MODEL FORMAT: SPICE3\n*     anode cathode\n*node: 2      1\n*    Forward Section\nD1 2 1 MD1 TEMP=25\n.MODEL MD1 D IS=6.57933e-10 N=1.84949 XTI=1 RS=1.022\n+ CJO=2.9e-10 TT=1e-08\n*    Leakage Current\nR 1 2 2e+07 MDR\n.MODEL MDR R TC1=0 TC2=0\n*    Breakdown\nRZ 2 3 14.9971\nIZG 4 3 12\nR4 4 3 3500\nD3 3 4 MD3 TEMP=25\n.MODEL MD3 D IS=2.5e-12 N=1.36796 XTI=0 EG=0.1\nD2 5 4 MD2 TEMP=25\n.MODEL MD2 D IS=2.5e-12 N=10.6465 XTI=0 EG=0.1\nEV1 1 5 6 0 1\nIBV 0 6 0.001\nRBV 6 0 -1632.77 MDRBV\n.MODEL MDRBV R TC1=0.00122479\n*-- SPICE3 DIODE MODEL DEFAULT PARAMETER\n*  VALUES ARE ASSUMED\n*IS=1E-14 RS=0 N=1 TT=0 CJO=0\n*VJ=1 M=0.5 EG=1.11 XTI=3 FC=0.5\n*KF=0 AF=1 BV=inf IBV=1e-3 TNOM=27\n.ENDS mmsz3v3t1
